l,n,v,err
0,14,1509.17,0.06
0,15,1606.54,0.33
0,16,1704.88,0.33
0,17,1801.15,0.56
0,18,1898.22,0.38
0,19,1996.32,0.2
0,20,2094.92,0.25
0,21,2193.75,0.23
0,22,2292.86,0.24
0,23,2389.78,0.76
0,24,2489.85,0.71
1,14,1554.33,0.42
1,15,1652.8,0.34
1,16,1749.85,0.48
1,17,1845.74,0.51
1,18,1943.94,0.25
1,19,2041.81,0.23
1,20,2141.32,0.2
1,21,2240.31,0.26
1,22,2338.11,0.38
1,23,2437.27,0.44
1,24,2536.07,1.19
2,15,1696.88,0.53
2,16,1793.02,1.13
2,17,1890.81,0.77
2,18,1988.38,0.4
2,19,2086.48,0.45
2,20,2186.2,0.31
2,21,2284.02,0.33
2,22,2382.56,0.77
2,23,2479.76,1.14